{
    "name": "Calificacion",
    "fields": [
        {
            "fieldName": "descripcion",
            "fieldType": "String",
            "fieldValidateRules": [
                "required"
            ]
        },
        {
            "fieldName": "created",
            "fieldType": "ZonedDateTime",
            "fieldValidateRules": [
                "required"
            ]
        },
        {
            "fieldName": "updated",
            "fieldType": "ZonedDateTime",
            "fieldValidateRules": [
                "required"
            ]
        }
    ],
    "relationships": [
        {
            "relationshipType": "one-to-many",
            "relationshipName": "pelicula",
            "otherEntityName": "pelicula",
            "otherEntityRelationshipName": "calificacion"
        }
    ],
    "changelogDate": "20181110013702",
    "entityTableName": "calificacion",
    "dto": "no",
    "pagination": "pagination",
    "service": "serviceImpl",
    "jpaMetamodelFiltering": false,
    "fluentMethods": true,
    "clientRootFolder": "",
    "applications": "*"
}